EESchema Schematic File Version 2
LIBS:mysensors-plug-rescue
LIBS:power
LIBS:device
LIBS:transistors
LIBS:conn
LIBS:linear
LIBS:regul
LIBS:74xx
LIBS:cmos4000
LIBS:adc-dac
LIBS:memory
LIBS:xilinx
LIBS:microcontrollers
LIBS:dsp
LIBS:microchip
LIBS:analog_switches
LIBS:motorola
LIBS:texas
LIBS:intel
LIBS:audio
LIBS:interface
LIBS:digital-audio
LIBS:philips
LIBS:display
LIBS:cypress
LIBS:siliconi
LIBS:opto
LIBS:atmel
LIBS:contrib
LIBS:valves
LIBS:my-microcontrollers
LIBS:my-misc-modules
LIBS:my-power-supplies
LIBS:my-regulators
LIBS:my-relays
LIBS:mysensors-plug-cache
EELAYER 25 0
EELAYER END
$Descr A4 11693 8268
encoding utf-8
Sheet 1 1
Title ""
Date ""
Rev ""
Comp ""
Comment1 ""
Comment2 ""
Comment3 ""
Comment4 ""
$EndDescr
$Comp
L NRF24L01 U4
U 1 1 59907F10
P 6000 2000
F 0 "U4" H 5850 2250 60  0000 C CNN
F 1 "NRF24L01" H 6000 1600 60  0000 C CNN
F 2 "myModules:NRF24L01" H 6000 2000 60  0001 C CNN
F 3 "" H 6000 2000 60  0000 C CNN
	1    6000 2000
	-1   0    0    -1  
$EndComp
$Comp
L GND #PWR9
U 1 1 59907F81
P 6000 2650
F 0 "#PWR9" H 6000 2400 50  0001 C CNN
F 1 "GND" H 6000 2500 50  0000 C CNN
F 2 "" H 6000 2650 50  0000 C CNN
F 3 "" H 6000 2650 50  0000 C CNN
	1    6000 2650
	1    0    0    -1  
$EndComp
$Comp
L +3V3 #PWR8
U 1 1 59907FD5
P 6000 1150
F 0 "#PWR8" H 6000 1000 50  0001 C CNN
F 1 "+3V3" H 6000 1290 50  0000 C CNN
F 2 "" H 6000 1150 50  0000 C CNN
F 3 "" H 6000 1150 50  0000 C CNN
	1    6000 1150
	1    0    0    -1  
$EndComp
$Comp
L CONN_01X02 P2
U 1 1 59908412
P 1500 5200
F 0 "P2" H 1500 5350 50  0000 C CNN
F 1 "AC-230V" V 1600 5200 50  0000 C CNN
F 2 "Connect:bornier2" H 1500 5200 50  0001 C CNN
F 3 "" H 1500 5200 50  0000 C CNN
	1    1500 5200
	-1   0    0    -1  
$EndComp
$Comp
L GND #PWR4
U 1 1 59908427
P 2750 3400
F 0 "#PWR4" H 2750 3150 50  0001 C CNN
F 1 "GND" H 2750 3250 50  0000 C CNN
F 2 "" H 2750 3400 50  0000 C CNN
F 3 "" H 2750 3400 50  0000 C CNN
	1    2750 3400
	1    0    0    -1  
$EndComp
$Comp
L +5V #PWR3
U 1 1 5990842D
P 2750 2750
F 0 "#PWR3" H 2750 2600 50  0001 C CNN
F 1 "+5V" H 2750 2890 50  0000 C CNN
F 2 "" H 2750 2750 50  0000 C CNN
F 3 "" H 2750 2750 50  0000 C CNN
	1    2750 2750
	1    0    0    -1  
$EndComp
$Comp
L arduino_mini U1
U 1 1 5992F159
P 4100 2650
F 0 "U1" H 4125 3200 70  0000 C CNN
F 1 "arduino_mini" H 4125 2950 70  0000 C CNN
F 2 "myMicroControllers:Arduino-mini" H 4100 2550 60  0001 C CNN
F 3 "" H 4425 2150 60  0000 C CNN
	1    4100 2650
	-1   0    0    1   
$EndComp
$Comp
L MCP1702 U2
U 1 1 5992F4B0
P 6050 4750
F 0 "U2" H 5850 4950 50  0000 C CNN
F 1 "MCP1702" H 6050 4950 50  0000 L CNN
F 2 "TO_SOT_Packages_THT:TO-92_Inline_Wide" H 6050 4850 50  0001 C CIN
F 3 "" H 6050 4750 50  0000 C CNN
	1    6050 4750
	1    0    0    -1  
$EndComp
$Comp
L +5V #PWR7
U 1 1 5992F532
P 5550 4600
F 0 "#PWR7" H 5550 4450 50  0001 C CNN
F 1 "+5V" H 5550 4740 50  0000 C CNN
F 2 "" H 5550 4600 50  0000 C CNN
F 3 "" H 5550 4600 50  0000 C CNN
	1    5550 4600
	1    0    0    -1  
$EndComp
$Comp
L C C2
U 1 1 5992F89E
P 6600 4950
F 0 "C2" H 6625 5050 50  0000 L CNN
F 1 "1µF" H 6625 4850 50  0000 L CNN
F 2 "Capacitors_ThroughHole:C_Rect_L7_W2.5_P5" H 6638 4800 50  0001 C CNN
F 3 "" H 6600 4950 50  0000 C CNN
	1    6600 4950
	1    0    0    -1  
$EndComp
$Comp
L GND #PWR12
U 1 1 5992FBCA
P 6600 5300
F 0 "#PWR12" H 6600 5050 50  0001 C CNN
F 1 "GND" H 6600 5150 50  0000 C CNN
F 2 "" H 6600 5300 50  0000 C CNN
F 3 "" H 6600 5300 50  0000 C CNN
	1    6600 5300
	1    0    0    -1  
$EndComp
$Comp
L +3V3 #PWR11
U 1 1 5992FF95
P 6600 4600
F 0 "#PWR11" H 6600 4450 50  0001 C CNN
F 1 "+3V3" H 6600 4740 50  0000 C CNN
F 2 "" H 6600 4600 50  0000 C CNN
F 3 "" H 6600 4600 50  0000 C CNN
	1    6600 4600
	1    0    0    -1  
$EndComp
$Comp
L C C1
U 1 1 599178AC
P 2550 3100
F 0 "C1" H 2575 3200 50  0000 L CNN
F 1 "100nF" H 2575 3000 50  0000 L CNN
F 2 "Capacitors_ThroughHole:C_Rect_L7_W2_P5" H 2588 2950 50  0001 C CNN
F 3 "" H 2550 3100 50  0000 C CNN
	1    2550 3100
	1    0    0    -1  
$EndComp
Text GLabel 7000 1200 1    60   Input ~ 0
RESET
Text GLabel 7200 1200 1    60   Input ~ 0
SET
$Comp
L R R2
U 1 1 59A71F62
P 7750 3200
F 0 "R2" V 7830 3200 50  0000 C CNN
F 1 "1K" V 7750 3200 50  0000 C CNN
F 2 "Resistors_ThroughHole:Resistor_Horizontal_RM10mm" V 7680 3200 50  0001 C CNN
F 3 "" H 7750 3200 50  0000 C CNN
	1    7750 3200
	0    1    1    0   
$EndComp
$Comp
L R R1
U 1 1 59A71F69
P 7750 2800
F 0 "R1" V 7830 2800 50  0000 C CNN
F 1 "1K" V 7750 2800 50  0000 C CNN
F 2 "Resistors_ThroughHole:Resistor_Horizontal_RM10mm" V 7680 2800 50  0001 C CNN
F 3 "" H 7750 2800 50  0000 C CNN
	1    7750 2800
	0    1    1    0   
$EndComp
$Comp
L D D2
U 1 1 59A71F70
P 8500 2150
F 0 "D2" H 8500 2250 50  0000 C CNN
F 1 "1N4148" H 8500 2050 50  0000 C CNN
F 2 "Diodes_ThroughHole:Diode_DO-35_SOD27_Horizontal_RM10" H 8500 2150 50  0001 C CNN
F 3 "" H 8500 2150 50  0000 C CNN
	1    8500 2150
	0    1    1    0   
$EndComp
$Comp
L D D1
U 1 1 59A71F77
P 8100 2150
F 0 "D1" H 8100 2250 50  0000 C CNN
F 1 "1N4148" H 8100 2050 50  0000 C CNN
F 2 "Diodes_ThroughHole:Diode_DO-35_SOD27_Horizontal_RM10" H 8100 2150 50  0001 C CNN
F 3 "" H 8100 2150 50  0000 C CNN
	1    8100 2150
	0    1    1    0   
$EndComp
$Comp
L PN2222A Q2
U 1 1 59A71F7E
P 8600 2800
F 0 "Q2" H 8800 2875 50  0000 L CNN
F 1 "2N3904" H 8800 2800 50  0000 L CNN
F 2 "TO_SOT_Packages_THT:TO-92_Inline_Wide" H 8800 2725 50  0001 L CIN
F 3 "" H 8600 2800 50  0000 L CNN
	1    8600 2800
	1    0    0    -1  
$EndComp
$Comp
L PN2222A Q1
U 1 1 59A71F85
P 8200 3200
F 0 "Q1" H 8400 3275 50  0000 L CNN
F 1 "2N3904" H 8400 3200 50  0000 L CNN
F 2 "TO_SOT_Packages_THT:TO-92_Inline_Wide" H 8400 3125 50  0001 L CIN
F 3 "" H 8200 3200 50  0000 L CNN
	1    8200 3200
	1    0    0    -1  
$EndComp
$Comp
L GND #PWR14
U 1 1 59A71FAC
P 8300 3600
F 0 "#PWR14" H 8300 3350 50  0001 C CNN
F 1 "GND" H 8300 3450 50  0000 C CNN
F 2 "" H 8300 3600 50  0000 C CNN
F 3 "" H 8300 3600 50  0000 C CNN
	1    8300 3600
	1    0    0    -1  
$EndComp
$Comp
L RELAY-DPDT-2COILS K1
U 1 1 59A71FB9
P 9700 1550
F 0 "K1" H 9650 1950 50  0000 C CNN
F 1 "OMRON-G5RL-K1A-E-5DC" H 9695 750 50  0000 C CNN
F 2 "myRelays:Relay_SPDT_Omron-G5RL-K1-E" H 9700 1550 50  0001 C CNN
F 3 "" H 9700 1550 50  0000 C CNN
	1    9700 1550
	1    0    0    -1  
$EndComp
$Comp
L CONN_01X02 P1
U 1 1 59A73AF6
P 1500 5950
F 0 "P1" H 1500 6100 50  0000 C CNN
F 1 "AC-OUT" V 1600 5950 50  0000 C CNN
F 2 "Connect:bornier2" H 1500 5950 50  0001 C CNN
F 3 "" H 1500 5950 50  0000 C CNN
	1    1500 5950
	-1   0    0    1   
$EndComp
$Comp
L CONN_01X05 P3
U 1 1 59AA69D4
P 1500 3850
F 0 "P3" H 1500 4000 50  0000 C CNN
F 1 "FRONT-PANEL" V 1600 3850 50  0000 C CNN
F 2 "Pin_Headers:Pin_Header_Straight_1x05" H 1500 3850 50  0001 C CNN
F 3 "" H 1500 3850 50  0000 C CNN
	1    1500 3850
	-1   0    0    1   
$EndComp
$Comp
L GND #PWR1
U 1 1 59AA69DB
P 1900 4150
F 0 "#PWR1" H 1900 3900 50  0001 C CNN
F 1 "GND" H 1900 4000 50  0000 C CNN
F 2 "" H 1900 4150 50  0000 C CNN
F 3 "" H 1900 4150 50  0000 C CNN
	1    1900 4150
	1    0    0    -1  
$EndComp
Text GLabel 1600 3150 0    60   Input ~ 0
MANUAL
Text GLabel 2850 3750 0    60   Input ~ 0
RED_LED
Text GLabel 2850 4050 0    60   Input ~ 0
GREEN_LED
$Comp
L +5V #PWR2
U 1 1 59AA6CAB
P 2200 3750
F 0 "#PWR2" H 2200 3600 50  0001 C CNN
F 1 "+5V" H 2200 3890 50  0000 C CNN
F 2 "" H 2200 3750 50  0000 C CNN
F 3 "" H 2200 3750 50  0000 C CNN
	1    2200 3750
	1    0    0    -1  
$EndComp
$Comp
L GND #PWR6
U 1 1 59ABB78A
P 3750 5300
F 0 "#PWR6" H 3750 5050 50  0001 C CNN
F 1 "GND" H 3750 5150 50  0000 C CNN
F 2 "" H 3750 5300 50  0000 C CNN
F 3 "" H 3750 5300 50  0000 C CNN
	1    3750 5300
	1    0    0    -1  
$EndComp
$Comp
L +5V #PWR5
U 1 1 59ABB79B
P 3700 5050
F 0 "#PWR5" H 3700 4900 50  0001 C CNN
F 1 "+5V" H 3700 5190 50  0000 C CNN
F 2 "" H 3700 5050 50  0000 C CNN
F 3 "" H 3700 5050 50  0000 C CNN
	1    3700 5050
	1    0    0    -1  
$EndComp
$Comp
L +5V #PWR13
U 1 1 59ABBA22
P 8100 1800
F 0 "#PWR13" H 8100 1650 50  0001 C CNN
F 1 "+5V" H 8100 1940 50  0000 C CNN
F 2 "" H 8100 1800 50  0000 C CNN
F 3 "" H 8100 1800 50  0000 C CNN
	1    8100 1800
	1    0    0    -1  
$EndComp
$Comp
L IRM-XX-XX U3
U 1 1 5D1EA6E4
P 2950 5200
F 0 "U3" H 2950 5450 60  0000 C CNN
F 1 "IRM-03-5" H 2700 4950 60  0000 L CNN
F 2 "myPowerSupplies:MEANWELL_IRM-03-XX" H 2950 5200 60  0001 C CNN
F 3 "" H 2950 5200 60  0000 C CNN
	1    2950 5200
	1    0    0    1   
$EndComp
Wire Wire Line
	6600 4700 6450 4700
Connection ~ 6600 5200
Wire Wire Line
	6600 5100 6600 5300
Connection ~ 6600 4700
Wire Wire Line
	6600 4600 6600 4800
Wire Wire Line
	6050 5200 6050 5000
Wire Wire Line
	5550 4700 5650 4700
Connection ~ 2750 3350
Wire Wire Line
	2550 3350 2550 3250
Wire Wire Line
	2750 3350 2550 3350
Wire Wire Line
	1700 5150 2300 5150
Wire Wire Line
	5350 2650 5150 2650
Wire Wire Line
	5350 2650 5350 3200
Wire Wire Line
	2750 2750 2750 2950
Wire Wire Line
	2750 3250 2750 3400
Wire Wire Line
	2750 3250 3100 3250
Wire Wire Line
	2750 2950 3100 2950
Wire Wire Line
	5450 2800 5150 2800
Wire Wire Line
	5450 2100 5450 2800
Wire Wire Line
	6550 2100 6550 1300
Wire Wire Line
	6450 2100 6550 2100
Wire Wire Line
	5550 2000 5400 2000
Wire Wire Line
	6600 2000 6450 2000
Wire Wire Line
	5150 1900 5550 1900
Wire Wire Line
	5300 2050 5150 2050
Wire Wire Line
	5300 1350 5300 2050
Wire Wire Line
	6650 1350 5300 1350
Wire Wire Line
	6650 1900 6650 1350
Wire Wire Line
	6450 1900 6650 1900
Wire Wire Line
	6550 1300 2950 1300
Wire Wire Line
	2950 1300 2950 2050
Wire Wire Line
	2950 2050 3100 2050
Wire Wire Line
	5400 2000 5400 1250
Wire Wire Line
	5400 1250 2900 1250
Wire Wire Line
	2900 1250 2900 1900
Wire Wire Line
	2900 1900 3100 1900
Wire Wire Line
	6600 2000 6600 1200
Wire Wire Line
	6600 1200 2850 1200
Wire Wire Line
	2850 1200 2850 2200
Wire Wire Line
	2850 2200 3100 2200
Connection ~ 2750 2850
Wire Wire Line
	2550 2850 2750 2850
Wire Wire Line
	2550 2950 2550 2850
Wire Wire Line
	5550 4700 5550 4600
Wire Wire Line
	6050 5200 6600 5200
Wire Wire Line
	7200 1200 7200 3150
Wire Wire Line
	7000 1200 7000 3200
Connection ~ 7200 2800
Connection ~ 8300 2500
Wire Wire Line
	8100 2500 8300 2500
Wire Wire Line
	8100 2300 8100 2500
Wire Wire Line
	8500 1900 8500 2000
Wire Wire Line
	8100 1800 8100 2000
Connection ~ 8700 2500
Wire Wire Line
	8500 2500 8700 2500
Wire Wire Line
	8500 2300 8500 2500
Wire Wire Line
	8700 2200 8700 2600
Wire Wire Line
	9300 2200 8700 2200
Wire Wire Line
	8700 3500 8700 3000
Wire Wire Line
	7900 2800 8400 2800
Wire Wire Line
	8300 1800 8300 3000
Wire Wire Line
	8300 3400 8300 3600
Wire Wire Line
	7900 3200 8000 3200
Wire Wire Line
	5350 3200 7600 3200
Wire Wire Line
	8300 3500 8700 3500
Connection ~ 8300 3500
Wire Wire Line
	8300 1800 9300 1800
Wire Wire Line
	8100 1900 9300 1900
Connection ~ 8500 1900
Wire Wire Line
	7200 2800 7600 2800
Connection ~ 8100 1900
Connection ~ 7000 3200
Wire Wire Line
	9050 1300 9050 6000
Wire Wire Line
	9050 1300 9300 1300
Wire Wire Line
	10200 1400 10200 6100
Wire Wire Line
	10200 1700 10100 1700
Wire Wire Line
	10200 1400 10100 1400
Connection ~ 10200 1700
Wire Wire Line
	9300 1600 9050 1600
Connection ~ 9050 1600
Wire Wire Line
	5150 2500 5400 2500
Wire Wire Line
	5400 2500 5400 3150
Wire Wire Line
	5400 3150 7200 3150
Wire Wire Line
	10200 6100 1900 6100
Wire Wire Line
	9050 6000 1700 6000
Connection ~ 1800 3150
Wire Wire Line
	1900 3750 1900 4150
Wire Wire Line
	1700 3750 1900 3750
Wire Wire Line
	1800 3650 1700 3650
Wire Wire Line
	2200 3750 2200 4050
Wire Wire Line
	2850 4050 2950 4050
Wire Wire Line
	2950 4050 2950 3950
Connection ~ 2950 3950
Wire Wire Line
	2200 4050 1700 4050
Wire Wire Line
	1700 3950 5300 3950
Wire Wire Line
	2850 3750 2950 3750
Wire Wire Line
	2950 3750 2950 3850
Connection ~ 2950 3850
Wire Wire Line
	1700 3850 5250 3850
Wire Wire Line
	1800 1150 1800 3650
Wire Wire Line
	5250 3850 5250 2200
Wire Wire Line
	5300 3950 5300 2350
Wire Wire Line
	1800 1150 5250 1150
Wire Wire Line
	5250 1150 5250 1750
Wire Wire Line
	5250 1750 5150 1750
Wire Wire Line
	1700 5250 2300 5250
Connection ~ 1900 5250
Wire Wire Line
	5250 2200 5150 2200
Wire Wire Line
	5300 2350 5150 2350
Wire Wire Line
	1600 3150 1800 3150
Wire Wire Line
	1900 5250 1900 5250
Wire Wire Line
	1900 6100 1900 5250
Wire Wire Line
	1700 5900 2000 5900
Wire Wire Line
	2000 5900 2000 5150
Connection ~ 2000 5150
Wire Wire Line
	5450 2100 5550 2100
Wire Wire Line
	6000 1150 6000 1450
Wire Wire Line
	6000 2550 6000 2650
Wire Wire Line
	3600 5100 3750 5100
Wire Wire Line
	3600 5300 3700 5300
Wire Wire Line
	3700 5300 3700 5050
Wire Wire Line
	3750 5100 3750 5300
$Comp
L C C3
U 1 1 5D2313CD
P 6500 2350
F 0 "C3" H 6525 2450 50  0000 L CNN
F 1 "100nF" H 6525 2250 50  0000 L CNN
F 2 "Capacitors_ThroughHole:C_Rect_L7_W2_P5" H 6538 2200 50  0001 C CNN
F 3 "" H 6500 2350 50  0000 C CNN
	1    6500 2350
	1    0    0    -1  
$EndComp
Wire Wire Line
	6500 2200 6500 1400
Wire Wire Line
	6500 1400 6000 1400
Connection ~ 6000 1400
$Comp
L GND #PWR10
U 1 1 5D231545
P 6500 2650
F 0 "#PWR10" H 6500 2400 50  0001 C CNN
F 1 "GND" H 6500 2500 50  0000 C CNN
F 2 "" H 6500 2650 50  0000 C CNN
F 3 "" H 6500 2650 50  0000 C CNN
	1    6500 2650
	1    0    0    -1  
$EndComp
Wire Wire Line
	6500 2650 6500 2500
$EndSCHEMATC
