Reference, Value, Footprint, Datasheet,Price
,,,,
D2,GREEN_LED,LEDs:LED-3MM,"0,11",
D1,RED_LED,LEDs:LED-3MM,"0,116",
SW1,MANUAL,library:µSW,"0,23",
P1,WIFI-RELAY,Pin_Headers:Pin_Header_Angled_1x05,"0,036",
R1,470,Resistors_ThroughHole:Resistor_Horizontal_RM10mm,"0,0195",
R2,470,Resistors_ThroughHole:Resistor_Horizontal_RM10mm,"0,0195",
R3,10K,Resistors_ThroughHole:Resistor_Horizontal_RM10mm,"0,0195",
,,,,
,,,"0,5505",
